multiplexador/simulation/qsim/multiplexador.msim.vcd
$comment
	File created using the following command:
		vcd file multiplexador.msim.vcd -direction
$end
$date
	Fri Mar 29 15:54:37 2019
$end
$version
	ModelSim Version 10.1d
$end
$timescale
	1ps
$end
$scope module multiplexador_vlg_vec_tst $end
$var reg 1 ! s0 $end
$var reg 1 " s1 $end
$var reg 1 # x0 $end
$var reg 1 $ x1 $end
$var reg 1 % x2 $end
$var reg 1 & x3 $end
$var wire 1 ' y $end
$var wire 1 ( sampler $end
$scope module i1 $end
$var wire 1 ) gnd $end
$var wire 1 * vcc $end
$var wire 1 + unknown $end
$var tri1 1 , devclrn $end
$var tri1 1 - devpor $end
$var tri1 1 . devoe $end
$var wire 1 / x3~combout $end
$var wire 1 0 s1~combout $end
$var wire 1 1 x1~combout $end
$var wire 1 2 x0~combout $end
$var wire 1 3 s0~combout $end
$var wire 1 4 x2~combout $end
$var wire 1 5 y~0_combout $end
$var wire 1 6 y~1_combout $end
$upscope $end
$upscope $end
$enddefinitions $end
#0
$dumpvars
0!
1"
1#
1$
0%
0&
x'
x(
0)
1*
x+
1,
1-
1.
0/
10
11
12
03
04
x5
x6
$end
#4577
05
#4973
06
#5000
0#
0$
1%
0(
#5832
14
#5852
01
02
#10000
1!
1&
1$
1(
#10409
15
#10805
16
#10842
1/
#10852
11
#10943
0'
#10999
13
#14262
05
#14658
06
#15000
0"
0%
0!
0$
0(
#15764
15
#15832
04
#15852
01
#15999
03
00
#16160
16
#16775
1'
#19262
05
#19658
06
#20000
1#
1"
1!
1$
1(
#20852
11
12
#20999
13
10
#24262
15
#24658
16
#25000
0&
0"
0!
0$
0(
#25628
0'
#25842
0/
#25852
01
#25999
03
00
#29262
05
#30000
1%
1"
1!
1(
#30628
1'
#30832
14
#30999
13
10
#34204
06
#35000
0#
1&
1$
0(
#35842
1/
#35852
11
02
#40000
0%
0$
1(
#40174
0'
#40764
15
#40832
04
#40852
01
#41160
16
#45000
0"
0!
1#
0&
1%
0(
#45832
14
#45842
0/
#45852
12
#45999
03
00
#47130
1'
#49204
06
#49262
05
#50000
1$
1"
0%
1(
#50616
16
#50832
04
#50852
11
#50999
10
#54058
15
#54204
06
#54454
16
#55000
0#
0$
1%
0(
#55409
05
#55805
06
#55832
14
#55852
01
02
#60000
1!
0"
1$
1(
#60409
15
#60805
16
#60852
11
#60999
00
13
#61775
0'
#64204
06
#65000
1&
1#
0!
1"
0(
#65744
16
#65842
1/
#65852
12
#65999
10
03
#66775
1'
#70000
0%
1(
#70832
04
#75000
0&
1%
0(
#75409
05
#75805
06
#75832
14
#75842
0/
#80000
0$
0#
0"
0%
1(
#80409
15
#80805
16
#80832
04
#80852
02
01
#80999
00
#81775
0'
#84058
05
#85000
1&
1$
1%
0(
#85616
06
#85832
14
#85842
1/
#85852
11
#86775
1'
#90000
1"
1(
#90999
10
#91586
0'
#94058
15
#94454
16
#95000
0$
0%
0"
0(
#95832
04
#95852
01
#95999
00
#99058
05
#99454
06
#100000
1!
1#
1$
1%
1"
1(
#100424
1'
#100832
14
#100852
11
12
#100999
10
13
#104262
15
#104658
16
#105000
0&
0#
0"
0(
#105424
0'
#105842
0/
#105852
02
#105999
00
#110000
1&
1(
#110628
1'
#110842
1/
#115000
0$
0%
1"
0(
#115832
04
#115852
01
#115999
10
#120000
0&
1$
1%
0"
1(
#120832
14
#120842
0/
#120852
11
#120999
00
#124204
06
#125000
1#
1&
0$
1"
0(
#125744
16
#125842
1/
#125852
01
12
#125999
10
#129058
05
#129454
06
#130000
0&
0"
1(
#130764
15
#130842
0/
#130999
00
#131160
16
#134204
06
#135000
0!
0%
1$
1&
0(
#135832
04
#135842
1/
#135852
11
#135999
03
#139262
05
#139658
16
#140000
1"
1%
0$
1(
#140174
0'
#140832
14
#140852
01
#140999
10
#144204
06
#145000
0#
1!
0&
1$
0(
#145409
15
#145628
1'
#145805
16
#145842
0/
#145852
11
02
#145999
13
#150000
0"
1#
0!
1&
0$
1(
#150764
05
#150842
1/
#150852
01
12
#150999
03
00
#151160
06
#155000
0#
0(
#155616
16
#155852
02
#157130
0'
#160000
0%
0&
1(
#160616
06
#160832
04
#160842
0/
#161586
1'
#165000
1"
1!
1$
1&
0(
#165842
1/
#165852
11
#165999
13
10
#166586
0'
#170000
0"
0!
0$
0&
1(
#170764
15
#170842
0/
#170852
01
#170999
03
00
#171160
16
#174262
05
#174658
06
#175000
1%
1"
1$
0(
#175832
14
#175852
11
#175999
10
#177130
1'
#180000
1#
1&
0%
1(
#180409
15
#180628
0'
#180805
16
#180832
04
#180842
1/
#180852
12
#185000
1!
0"
0$
0#
1%
0(
#185409
05
#185805
06
#185832
14
#185852
02
01
#185999
00
13
#186775
1'
#189204
16
#189262
15
#190000
0!
1"
1#
1(
#190744
06
#190852
12
#190999
10
03
#191775
0'
#194204
16
#195000
0&
0%
1!
0"
0(
#195832
04
#195842
0/
#195999
00
13
#199204
06
#200000
1&
1%
1"
1(
#200174
1'
#200832
14
#200842
1/
#200999
10
#204058
05
#204204
16
#204454
06
#205000
0!
0&
0(
#205174
0'
#205764
15
#205842
0/
#205999
03
#206160
16
#210000
0#
0%
0"
1!
1(
#210832
04
#210852
02
#210999
13
00
#212130
1'
#214204
06
#215000
0!
0(
#215999
03
#219262
05
#220000
1$
1&
1#
1"
1!
1(
#220174
0'
#220842
1/
#220852
12
11
#220999
13
10
#225764
15
#226160
16
#230000
1%
0$
0"
0(
#230832
14
#230852
01
#230999
00
#232130
1'
#235000
0&
0#
0!
0%
1"
1(
#235744
06
#235832
04
#235842
0/
#235852
02
#235999
10
03
#239204
16
#240000
1&
1#
0"
0(
#240409
05
#240805
06
#240842
1/
#240852
12
#240999
00
#241714
0'
#245000
0#
1"
1(
#245616
16
#245852
02
#245999
10
#249204
06
#250000
1%
0&
1#
0(
#250832
14
#250842
0/
#250852
12
#251586
1'
#255000
1$
1!
0"
1(
#255174
0'
#255409
15
#255805
16
#255852
11
#255999
00
13
#259204
06
#260000
1&
0#
1"
0(
#260744
16
#260842
1/
#260852
02
#260999
10
#261775
1'
#264058
05
#264454
06
#265000
0%
1#
1(
#265764
15
#265832
04
#265852
12
#266160
16
#270000
0!
0&
0"
0#
0(
#270842
0/
#270852
02
#270999
00
03
#274262
05
#275000
1!
1&
1"
1#
1(
#275616
06
#275842
1/
#275852
12
#275999
10
13
#280000
1%
0!
0(
#280764
15
#280832
14
#280999
03
#281160
16
#281586
0'
#284262
05
#284658
06
#285000
0$
0&
0%
1(
#285409
15
#285805
16
#285832
04
#285842
0/
#285852
01
#287130
1'
#290000
1!
1$
1&
1%
0(
#290409
05
#290805
06
#290832
14
#290842
1/
#290852
11
#290999
13
#295000
0"
0!
0$
0%
1(
#295764
15
#295832
04
#295852
01
#295999
03
00
#296160
16
#296775
0'
#299262
05
#300000
0&
1"
1!
1%
0(
#300832
14
#300842
0/
#300999
13
10
#302130
1'
#304204
06
#304262
15
#304658
16
#305000
0#
1&
0"
0!
0%
1(
#305764
05
#305832
04
#305842
1/
#305852
02
#305999
03
00
#306160
06
#309204
16
#310000
1$
1#
1"
1!
0(
#310616
06
#310852
12
11
#310999
13
10
#314262
15
#314658
16
#315000
0&
1%
0"
1(
#315832
14
#315842
0/
#315999
00
#316586
0'
#320000
0!
1&
1"
0(
#320628
1'
#320842
1/
#320999
10
03
#325000
0#
0&
1(
#325842
0/
#325852
02
#330000
0"
1#
0(
#330852
12
#330999
00
#334058
05
#334454
06
#335000
1&
1(
#335616
16
#335842
1/
#340000
0$
1!
1"
0#
0&
0(
#340842
0/
#340852
02
01
#340999
10
13
#344058
15
#344204
06
#344454
16
#345000
0%
0"
1(
#345764
05
#345832
04
#345999
00
#346160
06
#349058
15
#350000
1$
0!
0(
#350852
11
#350999
03
#352130
0'
#354262
05
#355000
1&
1!
1(
#355842
1/
#355999
13
#359262
15
#359658
16
#360000
1"
0$
0&
0(
#360842
0/
#360852
01
#360999
10
#365000
1%
1(
#365628
1'
#365764
05
#365832
14
#366160
06
#370000
0!
0"
1&
0(
#370842
1/
#370999
00
03
#372130
0'
#375000
1#
1"
0&
1(
#375842
0/
#375852
12
#375999
10
#379058
15
#379454
16
#380000
1$
0%
0#
0"
1&
0(
#380832
04
#380842
1/
#380852
02
11
#380999
00
#384058
05
#384204
06
#384454
16
#385000
0&
1(
#385424
1'
#385616
06
#385842
0/
#390000
1%
1#
1"
0(
#390832
14
#390852
12
#390999
10
#391586
0'
#395000
0$
0%
0#
0"
1(
#395409
15
#395805
16
#395832
04
#395852
02
01
#395999
00
#399058
05
#400000
1!
1&
0(
#400616
06
#400842
1/
#400999
13
#401775
1'
#404262
15
#405000
1$
1"
0!
1(
#405852
11
#405999
03
10
#406586
0'
#409204
16
#409262
05
#409658
06
#410000
1#
0(
#410852
12
#415000
1%
0$
1!
0#
1(
#415832
14
#415852
02
01
#415999
13
#419262
15
#419658
16
#420000
1$
0(
#420852
11
#425000
0&
0%
0!
1#
0$
1(
#425628
1'
#425832
04
#425842
0/
#425852
01
12
#425999
03
#430000
0"
1&
1%
0#
1$
0(
#430409
05
#430805
06
#430832
14
#430842
1/
#430852
11
02
#430999
00
#434204
16
#435000
1"
1#
1(
#435616
06
#435852
12
#435999
10
#436775
0'
#439058
15
#439454
16
#440000
0&
0"
0(
#440842
0/
#440999
00
#444058
05
#445000
1!
0%
0$
1(
#445424
1'
#445832
04
#445852
01
#445999
13
#449262
15
#450000
0!
1$
0(
#450744
06
#450852
11
#450999
03
#454262
05
#454658
16
#455000
0#
1&
1"
1!
0$
1(
#455842
1/
#455852
01
02
#455999
13
10
#456714
0'
#459204
06
#460000
1%
1#
0&
0!
1$
0(
#460628
1'
#460764
15
#460832
14
#460842
0/
#460852
11
12
#460999
03
#461160
16
#464262
05
#464658
06
#465000
0"
0%
1&
1!
0$
1(
#465409
15
#465805
16
#465832
04
#465842
1/
#465852
01
#465999
13
00
#470000
0#
1%
0&
1$
0(
#470744
06
#470832
14
#470842
0/
#470852
11
02
#475000
0!
0%
1(
#475744
16
#475832
04
#475999
03
#476714
0'
#479262
05
#479658
06
#480000
1!
1%
0(
#480832
14
#480999
13
#481714
1'
#484262
15
#484658
16
#485000
1&
1(
#485628
0'
#485842
1/
#490000
1"
1#
0$
0(
#490628
1'
#490852
01
12
#490999
10
#495000
0&
0#
1(
#495842
0/
#495852
02
#500000
1$
1&
0(
#500764
05
#500842
1/
#500852
11
#501160
06
#505000
0&
1(
#505764
15
#505842
0/
#506160
16
#507130
0'
#510000
0!
0$
0(
#510764
05
#510852
01
#510999
03
#511160
06
#512130
1'
#514262
15
#514658
16
#515000
0"
1!
1(
#515999
13
00
#517130
0'
#519204
06
#520000
1"
0(
#520628
1'
#520999
10
#524058
05
#524204
16
#524454
06
#525000
1&
1$
0"
1(
#525174
0'
#525842
1/
#525852
11
#525999
00
#529058
15
#530000
0%
0$
1"
0(
#530744
16
#530832
04
#530852
01
#530999
10
#535000
1#
0!
1%
1(
#535832
14
#535852
12
#535999
03
#536714
1'
#539262
05
#539658
06
#540000
0&
1$
0"
1!
0(
#540409
15
#540805
16
#540842
0/
#540852
11
#540999
13
00
#544204
06
#545000
0%
1&
0$
1"
1(
#545744
16
#545832
04
#545842
1/
#545852
01
#545999
10
#549058
05
#549454
06
#550000
0!
0"
0(
#550764
15
#550999
00
03
#551160
16
#554204
06
#554262
05
#554658
16
#555000
1%
1$
1!
1(
#555832
14
#555852
11
#555999
13
#559262
15
#559658
06
#560000
0#
1"
0%
0(
#560744
16
#560832
04
#560852
02
#560999
10
#565000
0&
0$
1#
0"
1(
#565842
0/
#565852
12
01
#565999
00
#570000
0!
1&
0#
1"
0(
#570744
06
#570842
1/
#570852
02
#570999
10
03
#574058
05
#574204
16
#574454
06
#575000
1$
0&
1#
0"
1(
#575842
0/
#575852
12
11
#575999
00
#576714
0'
#580000
1%
1!
0$
0#
1"
0(
#580616
16
#580832
14
#580852
02
01
#580999
10
13
#584204
06
#585000
1$
1(
#585852
11
#586586
1'
#590000
0%
0!
0"
0$
0(
#590174
0'
#590832
04
#590852
01
#590999
00
03
#595000
1&
1#
1%
1"
1(
#595832
14
#595842
1/
#595852
12
#595999
10
#600000
1!
1$
0#
0"
0(
#600409
15
#600805
16
#600852
02
11
#600999
00
13
#604204
06
#605000
0&
1(
#605744
16
#605842
0/
#606775
1'
#610000
1#
1"
1&
0(
#610842
1/
#610852
12
#610999
10
#614058
05
#614454
06
#615000
0&
1(
#615764
15
#615842
0/
#616160
16
#620000
0"
1&
0(
#620764
05
#620842
1/
#620999
00
#621160
06
#624058
15
#624204
16
#625000
0#
1(
#625852
02
#630000
0!
0$
0&
1#
0(
#630842
0/
#630852
12
01
#630999
03
#634262
05
#634658
06
#635000
1!
0#
1(
#635616
16
#635852
02
#635999
13
#639262
15
#639658
06
#640000
0!
0(
#640999
03
#644262
05
#645000
1"
1&
1#
1!
1(
#645628
0'
#645842
1/
#645852
12
#645999
13
10
#650000
0%
1$
0&
0(
#650764
15
#650832
04
#650842
0/
#650852
11
#651160
16
#655000
0"
0!
1%
0$
1(
#655764
05
#655832
14
#655852
01
#655999
03
00
#656160
06
#657130
1'
#659204
16
#660000
1"
0%
0(
#660832
04
#660999
10
#664058
15
#664204
06
#664454
16
#665000
1&
1%
1(
#665409
05
#665805
06
#665832
14
#665842
1/
#670000
0#
0(
#670409
15
#670805
16
#670852
02
#671775
0'
#675000
1$
0&
1#
1(
#675842
0/
#675852
12
11
#676775
1'
#680000
1!
0%
0#
0(
#680832
04
#680852
02
#680999
13
#684262
05
#684658
06
#685000
0"
0$
1&
1%
1(
#685832
14
#685842
1/
#685852
01
#685999
00
#689058
15
#689454
16
#690000
0&
0(
#690628
0'
#690744
06
#690842
0/
#695000
1#
0%
1&
1(
#695832
04
#695842
1/
#695852
12
#700000
0!
1"
1$
0#
1%
0(
#700832
14
#700852
02
11
#700999
10
03
#704204
16
#704262
05
#704658
06
#705000
0"
0$
1(
#705409
15
#705805
16
#705852
01
#705999
00
#709058
05
#709454
06
#710000
1#
0%
1$
0(
#710832
04
#710852
11
12
#711775
1'
#715000
1!
1"
0#
1(
#715424
0'
#715616
16
#715852
02
#715999
10
13
#719204
06
#719262
15
#719658
16
#720000
0&
0"
1#
0(
#720842
0/
#720852
12
#720999
00
#721586
1'
#725000
1%
0!
0#
1(
#725832
14
#725852
02
#725999
03
#729262
05
#730000
0$
0%
1!
1#
0(
#730616
06
#730832
04
#730852
12
01
#730999
13
#734262
15
#734658
16
#735000
1"
1%
0!
1(
#735744
06
#735832
14
#735999
03
10
#736586
0'
#739058
05
#739204
16
#739454
06
#740000
1&
0"
0%
0(
#740409
15
#740805
16
#740832
04
#740842
1/
#740999
00
#744058
05
#744204
06
#744454
16
#745000
1!
1"
1(
#745999
10
13
#746775
1'
#749204
06
#749262
15
#749658
16
#750000
1$
0#
0&
1%
0(
#750832
14
#750842
0/
#750852
02
11
#755000
0%
1(
#755764
05
#755832
04
#756160
06
#760000
0!
0$
1#
0(
#760852
12
01
#760999
03
#762130
0'
#765000
0"
1%
1!
1$
1(
#765832
14
#765852
11
#765999
13
00
#769204
16
#769262
15
#769658
06
#770000
0#
1"
0%
0!
0$
0(
#770744
16
#770832
04
#770852
01
02
#770999
03
10
#775000
1&
1!
1$
1(
#775409
05
#775805
06
#775842
1/
#775852
11
#775999
13
#776714
1'
#780000
1#
0!
0(
#780764
15
#780852
12
#780999
03
#781160
16
#781775
0'
#784262
05
#784658
06
#785000
0&
0#
1(
#785842
0/
#785852
02
#787130
1'
#790000
0"
1&
1#
0(
#790628
0'
#790842
1/
#790852
12
#790999
00
#795616
16
#800000
1%
0$
1!
1"
1(
#800832
14
#800852
01
#800999
10
13
#801586
1'
#804204
06
#804262
15
#804658
16
#805000
0!
0(
#805999
03
#810000
0&
0#
1$
1!
1(
#810842
0/
#810852
11
02
#810999
13
#815000
0%
1#
0!
0(
#815764
05
#815832
04
#815852
12
#815999
03
#816160
06
#819262
15
#819658
16
#820000
0"
1(
#820409
05
#820805
06
#820999
00
#822130
0'
#824204
16
#825000
1%
0#
1!
1"
0(
#825832
14
#825852
02
#825999
10
13
#829204
06
#830000
1&
0%
1#
1(
#830174
1'
#830832
04
#830842
1/
#830852
12
#835000
0$
0"
0&
0(
#835174
0'
#835764
15
#835842
0/
#835852
01
#835999
00
#836160
16
#840000
0!
0#
1$
1"
1&
1(
#840744
06
#840842
1/
#840852
11
02
#840999
10
03
#842130
1'
#844058
05
#844204
16
#844454
06
#845000
1!
0$
0&
0(
#845842
0/
#845852
01
#845999
13
#846714
0'
#849262
15
#849658
16
#850000
1#
1$
1(
#850764
05
#850852
11
12
#851160
06
#855000
0$
0(
#855852
01
#860000
1%
0!
1&
0#
1$
1(
#860832
14
#860842
1/
#860852
11
02
#860999
03
#865000
0"
0%
0$
0(
#865409
15
#865805
16
#865832
04
#865852
01
#865999
00
#869058
05
#869454
06
#870000
1!
1#
1$
1(
#870852
11
12
#870999
13
#871775
1'
#874262
15
#875000
1"
1%
0!
0(
#875424
0'
#875744
16
#875832
14
#875999
03
10
#879262
05
#879658
06
#880000
0&
0$
0"
0%
1!
1(
#880409
15
#880805
16
#880832
04
#880842
0/
#880852
01
#880999
13
00
#881714
1'
#885000
0#
1&
0!
0(
#885744
06
#885842
1/
#885852
02
#885999
03
#889262
05
#889658
16
#890000
1"
1#
1(
#890616
06
#890852
12
#890999
10
#891714
0'
#895000
1$
0"
0#
0(
#895852
02
11
#895999
00
#899204
16
#900000
0&
1"
1#
1(
#900616
06
#900842
0/
#900852
12
#900999
10
#905000
0$
0#
0(
#905852
02
01
#910000
1&
0"
1$
1(
#910842
1/
#910852
11
#910999
00
#915000
1!
0&
1"
0$
0(
#915842
0/
#915852
01
#915999
10
13
#919262
15
#919658
16
#920000
0"
1(
#920764
05
#920999
00
#921160
06
#924058
15
#925000
1%
1#
1&
1$
0(
#925832
14
#925842
1/
#925852
11
12
#930000
0!
1"
0%
0&
0$
1(
#930744
16
#930832
04
#930842
0/
#930852
01
#930999
10
03
#935000
0#
1!
1%
1&
0(
#935409
05
#935805
06
#935832
14
#935842
1/
#935852
02
#935999
13
#936714
1'
#940000
0"
0!
0%
1(
#940764
15
#940832
04
#940999
03
00
#941160
16
#941775
0'
#944204
06
#944262
05
#945000
1!
1%
0(
#945832
14
#945999
13
#949262
15
#950000
1$
0&
0%
1(
#950832
04
#950842
0/
#950852
11
#955000
0$
1%
0(
#955744
16
#955832
14
#955852
01
#960000
1#
0!
1&
0%
1(
#960744
06
#960832
04
#960842
1/
#960852
12
#960999
03
#961714
1'
#964262
05
#965000
1"
1!
0(
#965616
16
#965999
13
10
#966714
0'
#969204
06
#969262
15
#969658
16
#970000
1$
0#
1%
0"
1(
#970832
14
#970852
02
11
#970999
00
#971586
1'
#974204
06
#975000
1#
0%
0(
#975744
16
#975832
04
#975852
12
#980000
0&
1"
1(
#980842
0/
#980999
10
#985000
0#
0"
0(
#985764
05
#985852
02
#985999
00
#986160
06
#989058
15
#989204
16
#990000
0!
1%
1#
1"
1(
#990832
14
#990852
12
#990999
10
03
#994058
05
#994454
06
#995000
0#
0"
0(
#995409
15
#995805
16
#995852
02
#995999
00
#999058
05
