simulation/qsim/multiplexador.msim.vcd
$comment
	File created using the following command:
		vcd file multiplexador.msim.vcd -direction
$end
$date
	Wed Apr 17 20:41:16 2019
$end
$version
	ModelSim Version 10.1d
$end
$timescale
	1ps
$end
$scope module soma_vlg_vec_tst $end
$var reg 4 ! A [3:0] $end
$var reg 4 " B [3:0] $end
$var wire 1 # Co $end
$var wire 1 $ S [3] $end
$var wire 1 % S [2] $end
$var wire 1 & S [1] $end
$var wire 1 ' S [0] $end
$var wire 1 ( sampler $end
$scope module i1 $end
$var wire 1 ) gnd $end
$var wire 1 * vcc $end
$var wire 1 + unknown $end
$var tri1 1 , devclrn $end
$var tri1 1 - devpor $end
$var tri1 1 . devoe $end
$var wire 1 / S0|Co~0_combout $end
$var wire 1 0 S1|S~0_combout $end
$var wire 1 1 S1|Co~0_combout $end
$var wire 1 2 S2|S~0_combout $end
$var wire 1 3 S2|Co~0_combout $end
$var wire 1 4 S3|S~combout $end
$var wire 1 5 S3|Co~0_combout $end
$var wire 1 6 B~combout [3] $end
$var wire 1 7 B~combout [2] $end
$var wire 1 8 B~combout [1] $end
$var wire 1 9 B~combout [0] $end
$var wire 1 : A~combout [3] $end
$var wire 1 ; A~combout [2] $end
$var wire 1 < A~combout [1] $end
$var wire 1 = A~combout [0] $end
$upscope $end
$upscope $end
$enddefinitions $end
#0
$dumpvars
b1111 !
b110 "
1#
1'
0&
1%
0$
x(
0)
1*
x+
1,
1-
1.
1/
00
11
12
13
04
15
09
18
17
06
1=
1<
1;
1:
$end
#50000
b1011 !
b1110 "
16
0;
0(
14
02
1$
0%
#100000
b1001 !
b1010 "
b1000 "
b1001 "
b1 "
19
08
07
06
0<
1(
01
10
0/
03
12
04
02
05
14
1&
0'
1%
0$
0%
0#
1$
#150000
b1 !
b101 !
b101 "
17
1;
0:
0(
13
04
14
0$
1$
#200000
b111 !
b100 "
b1100 "
b1111 !
b1000 "
09
07
16
1<
1:
1(
1/
03
12
15
04
1'
1%
1#
0$
#250000
b1110 !
b1010 "
b1010 !
b10 "
b110 "
18
17
06
0=
0;
0(
11
00
05
14
0/
13
02
0&
0#
1$
0'
15
04
0%
1#
0$
#300000
b1000 !
b111 "
b0 !
b1 !
b101 !
19
1=
0<
1;
0:
1(
12
05
14
1%
0#
1$
#350000
b101 "
b1101 "
b111 !
b110 !
b10 !
0=
1<
0;
08
16
0(
01
10
1/
02
15
04
03
12
1&
1'
0%
1#
0$
05
14
1%
0#
1$
#400000
b1001 "
b1000 "
b1010 !
b0 "
b1011 !
b1111 !
1=
1;
1:
09
07
06
1(
#450000
b10 "
b111 !
b110 !
0=
0:
18
0(
11
00
0/
04
13
02
0&
0'
0$
14
0%
1$
#500000
b1010 "
b1000 "
b1110 !
1:
08
16
1(
15
01
10
03
12
1#
1&
04
1%
0$
#550000
b1100 !
b1001 "
b1000 !
b1001 !
19
1=
0<
0;
0(
02
0%
#600000
b1 "
b11 "
b1101 !
b1100 !
0=
1;
18
06
1(
1/
12
05
14
1'
1%
0#
1$
#650000
b111 "
b1110 !
b110 "
b1110 "
b1111 !
1=
1<
09
17
16
0(
11
00
13
02
15
04
12
14
0&
0%
1#
0$
1%
1$
#700000
b111 !
b1100 "
b1000 "
b101 !
b0 "
b100 !
08
07
06
0=
0<
0:
1(
01
02
05
0/
03
12
0%
0#
0'
04
1%
0$
#750000
b1 "
b1100 !
1:
19
0(
14
1/
1$
1'
#800000
b11 "
b111 "
b1101 !
b110 "
1=
09
18
17
1(
10
13
02
15
04
1&
0%
1#
0$
#850000
b1111 !
b100 "
b0 "
b1110 !
08
07
0=
1<
0(
03
12
0/
05
14
1%
0'
0#
1$
#900000
b110 !
b100 !
b10 "
b101 !
18
1=
0<
0:
1(
1/
04
1'
0$
#950000
b1010 "
b111 !
b110 !
0=
1<
16
0(
11
00
0/
14
13
02
0&
0'
1$
15
04
0%
1#
0$
